<svg width="10" height="8" viewBox="0 0 10 8" fill="none" xmlns="http://www.w3.org/2000/svg">
<path d="M9.99997 7.78949C9.99909 6.95223 9.66957 6.14953 9.08371 5.5575C8.49785 4.96548 7.7035 4.63248 6.87497 4.63159C6.5381 4.63171 6.20353 4.6876 5.88456 4.79707C5.85111 4.80835 5.82104 4.82803 5.79717 4.85426C5.7733 4.88049 5.75641 4.91242 5.74808 4.94705C5.73975 4.98167 5.74026 5.01787 5.74955 5.05225C5.75885 5.08662 5.77663 5.11805 5.80122 5.14359C6.48899 5.84891 6.87467 6.79928 6.87497 7.78949V7.79959C6.87459 7.82577 6.87935 7.85177 6.889 7.87607C6.89865 7.90037 6.91298 7.92249 6.93117 7.94114C6.94935 7.95979 6.97103 7.9746 6.99493 7.9847C7.01883 7.99481 7.04448 8.00002 7.07039 8.00001H9.79164C9.84689 8.00001 9.89988 7.97783 9.93895 7.93835C9.97802 7.89887 9.99997 7.84532 9.99997 7.78949Z" fill="#8C8C8C"/>
<path d="M5.69807 1.27581C5.7534 1.44866 5.79233 1.62645 5.81432 1.80675C5.81823 1.83976 5.82983 1.87137 5.84816 1.89897C5.86648 1.92658 5.89102 1.94941 5.91976 1.9656C5.94849 1.98178 5.98061 1.99086 6.01349 1.99208C6.04637 1.99331 6.07906 1.98665 6.1089 1.97265C6.3866 1.84253 6.63773 1.66101 6.84932 1.43749C6.85908 1.42723 6.87079 1.41906 6.88375 1.41348C6.89671 1.4079 6.91065 1.40503 6.92473 1.40503C6.93882 1.40503 6.95276 1.4079 6.96572 1.41348C6.97868 1.41906 6.99039 1.42723 7.00015 1.43749C7.2837 1.73754 7.6373 1.96079 8.02848 2.08675C8.07573 2.10201 8.11603 2.1338 8.14215 2.17641C8.16827 2.21901 8.1785 2.26964 8.17098 2.31918C8.12477 2.62194 7.97296 2.89804 7.74298 3.09763C7.51299 3.29722 7.21998 3.40716 6.91682 3.4076C6.74508 3.40778 6.57513 3.37238 6.41747 3.30358C6.25981 3.23478 6.11777 3.13405 6.00015 3.0076C5.97594 2.98176 5.94563 2.96254 5.91208 2.95174C5.87852 2.94095 5.8428 2.93892 5.80826 2.94586C5.77372 2.9528 5.74148 2.96848 5.71456 2.99142C5.68764 3.01437 5.66691 3.04383 5.65432 3.07707C5.60574 3.20524 5.54766 3.32952 5.48057 3.44886C5.45695 3.49063 5.4482 3.53932 5.45578 3.58682C5.46336 3.63432 5.48682 3.67776 5.52224 3.70991C5.89163 4.04597 6.36799 4.23708 6.86489 4.24859C7.3618 4.2601 7.84632 4.09124 8.23057 3.77265C8.24321 3.76212 8.25814 3.75476 8.27413 3.75116C8.29012 3.74756 8.30673 3.74782 8.3226 3.75192C8.33847 3.75602 8.35316 3.76385 8.36548 3.77477C8.3778 3.78569 8.38739 3.79939 8.39348 3.81475C8.44659 3.95661 8.51388 4.09261 8.59432 4.22065C8.62328 4.26861 8.66144 4.31024 8.70656 4.34307C8.75169 4.3759 8.80286 4.39927 8.85706 4.4118C8.91126 4.42434 8.96739 4.42578 9.02216 4.41605C9.07692 4.40633 9.1292 4.38562 9.17592 4.35516C9.22264 4.32469 9.26285 4.28509 9.29419 4.23868C9.32553 4.19227 9.34736 4.13998 9.35839 4.08492C9.36943 4.02985 9.36944 3.9731 9.35844 3.91803C9.34743 3.86295 9.32563 3.81066 9.29432 3.76423C9.09855 3.43303 9.00188 3.05164 9.01598 2.66612V2.12465C9.01682 1.7163 8.90094 1.3164 8.68227 0.973009C8.46359 0.629619 8.15143 0.357355 7.7833 0.188942C7.41518 0.0205299 7.00675 -0.0368631 6.60712 0.0236617C6.20749 0.0841865 5.83366 0.260053 5.53057 0.530123C5.49465 0.562398 5.47088 0.60623 5.46328 0.654192C5.45569 0.702153 5.46474 0.751293 5.4889 0.793281C5.57564 0.946031 5.64577 1.10781 5.69807 1.27581Z" fill="#8C8C8C"/>
<path d="M5.20817 2.10526C5.20817 1.68888 5.08599 1.28185 4.85707 0.935642C4.62815 0.589434 4.30277 0.319597 3.9221 0.160255C3.54142 0.000912177 3.12253 -0.0407791 2.7184 0.040453C2.31427 0.121685 1.94306 0.322192 1.6517 0.616618C1.36034 0.911044 1.16192 1.28617 1.08154 1.69455C1.00115 2.10293 1.04241 2.52623 1.20009 2.91091C1.35777 3.2956 1.6248 3.6244 1.9674 3.85573C2.31 4.08705 2.71279 4.21053 3.12484 4.21053C3.67717 4.20986 4.20669 3.98784 4.59725 3.59317C4.9878 3.1985 5.20751 2.66341 5.20817 2.10526ZM1.9165 1.79242C1.9248 1.76087 1.94025 1.7317 1.96163 1.70721C1.983 1.68273 2.00972 1.66361 2.03967 1.65136C2.06962 1.6391 2.10197 1.63406 2.13418 1.63662C2.16639 1.63918 2.19757 1.64927 2.22525 1.66611C2.67839 1.94977 3.20014 2.10172 3.73317 2.10526C3.86274 2.10502 3.99211 2.09516 4.12025 2.07579C4.15231 2.07095 4.18504 2.07374 4.21584 2.08393C4.24665 2.09412 4.27467 2.11143 4.29769 2.13449C4.32071 2.15754 4.33809 2.18571 4.34844 2.21675C4.3588 2.24778 4.36184 2.28083 4.35734 2.31326C4.30512 2.62533 4.13887 2.90621 3.89151 3.10032C3.64414 3.29444 3.33367 3.38764 3.02155 3.36149C2.70942 3.33534 2.41839 3.19174 2.20603 2.9591C1.99368 2.72647 1.87549 2.42175 1.87484 2.10526C1.87499 1.99958 1.889 1.89438 1.9165 1.79242Z" fill="#595959"/>
<path d="M6.25 7.78949C6.25 6.95196 5.92076 6.14874 5.33471 5.55652C4.74866 4.9643 3.9538 4.63159 3.125 4.63159C2.2962 4.63159 1.50134 4.9643 0.915291 5.55652C0.32924 6.14874 0 6.95196 0 7.78949C0 7.84532 0.0219493 7.89887 0.0610194 7.93835C0.100089 7.97783 0.15308 8.00001 0.208333 8.00001H6.04167C6.09692 8.00001 6.14991 7.97783 6.18898 7.93835C6.22805 7.89887 6.25 7.84532 6.25 7.78949Z" fill="#595959"/>
</svg>
